[api-updater (non-obsolete-error-filter)] 8/31/2021 6:02:03 PM : Starting F:/Unity/2020.3.13f1/Editor/Data/Tools/ScriptUpdater/APIUpdater.NonObsoleteApiUpdaterDetector.exe
[api-updater (non-obsolete-error-filter)] 
----------------------------------
jit/startup time      : 572.8701ms
moved types parse time: 38ms
candidates parse time : 0ms
C# parse time         : 450ms
candidates check time : 31ms
console write time    : 0ms

[api-updater (non-obsolete-error-filter)] 8/31/2021 6:02:37 PM : Starting F:/Unity/2020.3.13f1/Editor/Data/Tools/ScriptUpdater/APIUpdater.NonObsoleteApiUpdaterDetector.exe
[api-updater (non-obsolete-error-filter)] 
----------------------------------
jit/startup time      : 54.5477ms
moved types parse time: 35ms
candidates parse time : 0ms
C# parse time         : 122ms
candidates check time : 28ms
console write time    : 0ms

[api-updater (non-obsolete-error-filter)] 9/5/2021 6:32:36 PM : Starting F:/Unity/2020.3.13f1/Editor/Data/Tools/ScriptUpdater/APIUpdater.NonObsoleteApiUpdaterDetector.exe
[api-updater (non-obsolete-error-filter)] 
----------------------------------
jit/startup time      : 505.205ms
moved types parse time: 37ms
candidates parse time : 0ms
C# parse time         : 376ms
candidates check time : 21ms
console write time    : 0ms

[api-updater (non-obsolete-error-filter)] 9/5/2021 6:56:20 PM : Starting F:/Unity/2020.3.13f1/Editor/Data/Tools/ScriptUpdater/APIUpdater.NonObsoleteApiUpdaterDetector.exe
[api-updater (non-obsolete-error-filter)] 
----------------------------------
jit/startup time      : 53.0455ms
moved types parse time: 33ms
candidates parse time : 0ms
C# parse time         : 127ms
candidates check time : 34ms
console write time    : 0ms

[api-updater (non-obsolete-error-filter)] 9/5/2021 7:34:58 PM : Starting F:/Unity/2020.3.13f1/Editor/Data/Tools/ScriptUpdater/APIUpdater.NonObsoleteApiUpdaterDetector.exe
[api-updater (non-obsolete-error-filter)] 
----------------------------------
jit/startup time      : 54.0464ms
moved types parse time: 35ms
candidates parse time : 0ms
C# parse time         : 127ms
candidates check time : 32ms
console write time    : 0ms

[api-updater (non-obsolete-error-filter)] 9/5/2021 9:36:42 PM : Starting F:/Unity/2020.3.13f1/Editor/Data/Tools/ScriptUpdater/APIUpdater.NonObsoleteApiUpdaterDetector.exe
[api-updater (non-obsolete-error-filter)] 
----------------------------------
jit/startup time      : 61.5534ms
moved types parse time: 34ms
candidates parse time : 0ms
C# parse time         : 120ms
candidates check time : 20ms
console write time    : 0ms

[api-updater (non-obsolete-error-filter)] 9/5/2021 10:33:05 PM : Starting F:/Unity/2020.3.13f1/Editor/Data/Tools/ScriptUpdater/APIUpdater.NonObsoleteApiUpdaterDetector.exe
[api-updater (non-obsolete-error-filter)] 
----------------------------------
jit/startup time      : 62.0527ms
moved types parse time: 34ms
candidates parse time : 0ms
C# parse time         : 128ms
candidates check time : 33ms
console write time    : 0ms

[api-updater (non-obsolete-error-filter)] 9/5/2021 10:40:00 PM : Starting F:/Unity/2020.3.13f1/Editor/Data/Tools/ScriptUpdater/APIUpdater.NonObsoleteApiUpdaterDetector.exe
[api-updater (non-obsolete-error-filter)] 
----------------------------------
jit/startup time      : 54.0466ms
moved types parse time: 34ms
candidates parse time : 0ms
C# parse time         : 123ms
candidates check time : 31ms
console write time    : 0ms

[api-updater (non-obsolete-error-filter)] 9/5/2021 10:40:34 PM : Starting F:/Unity/2020.3.13f1/Editor/Data/Tools/ScriptUpdater/APIUpdater.NonObsoleteApiUpdaterDetector.exe
[api-updater (non-obsolete-error-filter)] 
----------------------------------
jit/startup time      : 54.5469ms
moved types parse time: 34ms
candidates parse time : 0ms
C# parse time         : 126ms
candidates check time : 31ms
console write time    : 0ms

[api-updater (non-obsolete-error-filter)] 9/5/2021 10:54:06 PM : Starting F:/Unity/2020.3.13f1/Editor/Data/Tools/ScriptUpdater/APIUpdater.NonObsoleteApiUpdaterDetector.exe
[api-updater (non-obsolete-error-filter)] 
----------------------------------
jit/startup time      : 53.0452ms
moved types parse time: 34ms
candidates parse time : 0ms
C# parse time         : 127ms
candidates check time : 29ms
console write time    : 0ms

[api-updater (non-obsolete-error-filter)] 9/6/2021 3:18:15 PM : Starting F:/Unity/2020.3.13f1/Editor/Data/Tools/ScriptUpdater/APIUpdater.NonObsoleteApiUpdaterDetector.exe
[api-updater (non-obsolete-error-filter)] 
----------------------------------
jit/startup time      : 551.0798ms
moved types parse time: 40ms
candidates parse time : 0ms
C# parse time         : 430ms
candidates check time : 52ms
console write time    : 0ms

[api-updater (non-obsolete-error-filter)] 9/6/2021 3:18:32 PM : Starting F:/Unity/2020.3.13f1/Editor/Data/Tools/ScriptUpdater/APIUpdater.NonObsoleteApiUpdaterDetector.exe
[api-updater (non-obsolete-error-filter)] 
----------------------------------
jit/startup time      : 54.5476ms
moved types parse time: 37ms
candidates parse time : 0ms
C# parse time         : 144ms
candidates check time : 49ms
console write time    : 0ms

[api-updater (non-obsolete-error-filter)] 9/6/2021 3:18:33 PM : Starting F:/Unity/2020.3.13f1/Editor/Data/Tools/ScriptUpdater/APIUpdater.NonObsoleteApiUpdaterDetector.exe
[api-updater (non-obsolete-error-filter)] 
----------------------------------
jit/startup time      : 56.5486ms
moved types parse time: 35ms
candidates parse time : 0ms
C# parse time         : 141ms
candidates check time : 49ms
console write time    : 0ms

[api-updater (non-obsolete-error-filter)] 9/6/2021 3:18:55 PM : Starting F:/Unity/2020.3.13f1/Editor/Data/Tools/ScriptUpdater/APIUpdater.NonObsoleteApiUpdaterDetector.exe
[api-updater (non-obsolete-error-filter)] 
----------------------------------
jit/startup time      : 56.048ms
moved types parse time: 36ms
candidates parse time : 1ms
C# parse time         : 142ms
candidates check time : 49ms
console write time    : 0ms

[api-updater (non-obsolete-error-filter)] 9/6/2021 3:19:43 PM : Starting F:/Unity/2020.3.13f1/Editor/Data/Tools/ScriptUpdater/APIUpdater.NonObsoleteApiUpdaterDetector.exe
[api-updater (non-obsolete-error-filter)] 
----------------------------------
jit/startup time      : 56.0492ms
moved types parse time: 36ms
candidates parse time : 0ms
C# parse time         : 138ms
candidates check time : 50ms
console write time    : 0ms

[api-updater (non-obsolete-error-filter)] 9/6/2021 3:19:44 PM : Starting F:/Unity/2020.3.13f1/Editor/Data/Tools/ScriptUpdater/APIUpdater.NonObsoleteApiUpdaterDetector.exe
[api-updater (non-obsolete-error-filter)] 
----------------------------------
jit/startup time      : 66.5576ms
moved types parse time: 38ms
candidates parse time : 1ms
C# parse time         : 172ms
candidates check time : 62ms
console write time    : 0ms

[api-updater (non-obsolete-error-filter)] 9/6/2021 3:19:53 PM : Starting F:/Unity/2020.3.13f1/Editor/Data/Tools/ScriptUpdater/APIUpdater.NonObsoleteApiUpdaterDetector.exe
[api-updater (non-obsolete-error-filter)] 
----------------------------------
jit/startup time      : 59.0507ms
moved types parse time: 36ms
candidates parse time : 0ms
C# parse time         : 140ms
candidates check time : 52ms
console write time    : 0ms

[api-updater (non-obsolete-error-filter)] 9/6/2021 3:20:11 PM : Starting F:/Unity/2020.3.13f1/Editor/Data/Tools/ScriptUpdater/APIUpdater.NonObsoleteApiUpdaterDetector.exe
[api-updater (non-obsolete-error-filter)] 
----------------------------------
jit/startup time      : 56.5486ms
moved types parse time: 36ms
candidates parse time : 0ms
C# parse time         : 141ms
candidates check time : 52ms
console write time    : 0ms

[api-updater (non-obsolete-error-filter)] 9/6/2021 3:20:22 PM : Starting F:/Unity/2020.3.13f1/Editor/Data/Tools/ScriptUpdater/APIUpdater.NonObsoleteApiUpdaterDetector.exe
[api-updater (non-obsolete-error-filter)] 
----------------------------------
jit/startup time      : 56.0498ms
moved types parse time: 36ms
candidates parse time : 0ms
C# parse time         : 142ms
candidates check time : 51ms
console write time    : 0ms

[api-updater (non-obsolete-error-filter)] 9/6/2021 3:44:11 PM : Starting F:/Unity/2020.3.13f1/Editor/Data/Tools/ScriptUpdater/APIUpdater.NonObsoleteApiUpdaterDetector.exe
[api-updater (non-obsolete-error-filter)] 
----------------------------------
jit/startup time      : 58.0504ms
moved types parse time: 35ms
candidates parse time : 0ms
C# parse time         : 138ms
candidates check time : 34ms
console write time    : 0ms

[api-updater (non-obsolete-error-filter)] 9/6/2021 3:44:12 PM : Starting F:/Unity/2020.3.13f1/Editor/Data/Tools/ScriptUpdater/APIUpdater.NonObsoleteApiUpdaterDetector.exe
[api-updater (non-obsolete-error-filter)] 
----------------------------------
jit/startup time      : 56.0478ms
moved types parse time: 36ms
candidates parse time : 0ms
C# parse time         : 138ms
candidates check time : 33ms
console write time    : 0ms

[api-updater (non-obsolete-error-filter)] 9/6/2021 3:45:43 PM : Starting F:/Unity/2020.3.13f1/Editor/Data/Tools/ScriptUpdater/APIUpdater.NonObsoleteApiUpdaterDetector.exe
[api-updater (non-obsolete-error-filter)] 
----------------------------------
jit/startup time      : 61.5537ms
moved types parse time: 37ms
candidates parse time : 0ms
C# parse time         : 142ms
candidates check time : 51ms
console write time    : 0ms

[api-updater (non-obsolete-error-filter)] 9/6/2021 5:06:21 PM : Starting F:/Unity/2020.3.13f1/Editor/Data/Tools/ScriptUpdater/APIUpdater.NonObsoleteApiUpdaterDetector.exe
[api-updater (non-obsolete-error-filter)] 
----------------------------------
jit/startup time      : 61.0527ms
moved types parse time: 33ms
candidates parse time : 0ms
C# parse time         : 126ms
candidates check time : 47ms
console write time    : 0ms

[api-updater (non-obsolete-error-filter)] 9/6/2021 5:59:19 PM : Starting F:/Unity/2020.3.13f1/Editor/Data/Tools/ScriptUpdater/APIUpdater.NonObsoleteApiUpdaterDetector.exe
[api-updater (non-obsolete-error-filter)] 
----------------------------------
jit/startup time      : 60.5525ms
moved types parse time: 33ms
candidates parse time : 0ms
C# parse time         : 126ms
candidates check time : 48ms
console write time    : 0ms

[api-updater (non-obsolete-error-filter)] 9/6/2021 6:00:12 PM : Starting F:/Unity/2020.3.13f1/Editor/Data/Tools/ScriptUpdater/APIUpdater.NonObsoleteApiUpdaterDetector.exe
[api-updater (non-obsolete-error-filter)] 
----------------------------------
jit/startup time      : 64.5561ms
moved types parse time: 37ms
candidates parse time : 0ms
C# parse time         : 132ms
candidates check time : 53ms
console write time    : 0ms

[api-updater (non-obsolete-error-filter)] 9/9/2021 10:25:38 PM : Starting F:/Unity/2020.3.13f1/Editor/Data/Tools/ScriptUpdater/APIUpdater.NonObsoleteApiUpdaterDetector.exe
[api-updater (non-obsolete-error-filter)] 
----------------------------------
jit/startup time      : 65.556ms
moved types parse time: 46ms
candidates parse time : 1ms
C# parse time         : 118ms
candidates check time : 28ms
console write time    : 0ms

[api-updater (non-obsolete-error-filter)] 9/10/2021 1:31:38 PM : Starting F:/Unity/2020.3.13f1/Editor/Data/Tools/ScriptUpdater/APIUpdater.NonObsoleteApiUpdaterDetector.exe
[api-updater (non-obsolete-error-filter)] 
----------------------------------
jit/startup time      : 540.4106ms
moved types parse time: 39ms
candidates parse time : 0ms
C# parse time         : 411ms
candidates check time : 26ms
console write time    : 0ms

[api-updater (non-obsolete-error-filter)] 9/13/2021 8:23:59 PM : Starting F:/Unity/2020.3.13f1/Editor/Data/Tools/ScriptUpdater/APIUpdater.NonObsoleteApiUpdaterDetector.exe
[api-updater (non-obsolete-error-filter)] 
----------------------------------
jit/startup time      : 502.1113ms
moved types parse time: 38ms
candidates parse time : 0ms
C# parse time         : 403ms
candidates check time : 21ms
console write time    : 0ms

[api-updater (non-obsolete-error-filter)] 9/19/2021 12:05:19 PM : Starting F:/Unity/2020.3.13f1/Editor/Data/Tools/ScriptUpdater/APIUpdater.NonObsoleteApiUpdaterDetector.exe
[api-updater (non-obsolete-error-filter)] 
----------------------------------
jit/startup time      : 471.0785ms
moved types parse time: 36ms
candidates parse time : 0ms
C# parse time         : 404ms
candidates check time : 32ms
console write time    : 0ms

[api-updater (non-obsolete-error-filter)] 9/19/2021 5:24:56 PM : Starting F:/Unity/2020.3.13f1/Editor/Data/Tools/ScriptUpdater/APIUpdater.NonObsoleteApiUpdaterDetector.exe
[api-updater (non-obsolete-error-filter)] 
----------------------------------
jit/startup time      : 60.552ms
moved types parse time: 33ms
candidates parse time : 0ms
C# parse time         : 117ms
candidates check time : 28ms
console write time    : 0ms

[api-updater (non-obsolete-error-filter)] 9/19/2021 11:03:20 PM : Starting F:/Unity/2020.3.13f1/Editor/Data/Tools/ScriptUpdater/APIUpdater.NonObsoleteApiUpdaterDetector.exe
[api-updater (non-obsolete-error-filter)] 
----------------------------------
jit/startup time      : 51.045ms
moved types parse time: 33ms
candidates parse time : 0ms
C# parse time         : 118ms
candidates check time : 37ms
console write time    : 0ms

[api-updater (non-obsolete-error-filter)] 9/20/2021 1:07:00 AM : Starting F:/Unity/2020.3.13f1/Editor/Data/Tools/ScriptUpdater/APIUpdater.NonObsoleteApiUpdaterDetector.exe
[api-updater (non-obsolete-error-filter)] 
----------------------------------
jit/startup time      : 437.8758ms
moved types parse time: 35ms
candidates parse time : 0ms
C# parse time         : 416ms
candidates check time : 30ms
console write time    : 0ms

[api-updater (non-obsolete-error-filter)] 10/5/2021 8:42:13 PM : Starting F:/Unity/2020.3.13f1/Editor/Data/Tools/ScriptUpdater/APIUpdater.NonObsoleteApiUpdaterDetector.exe
[api-updater (non-obsolete-error-filter)] 
----------------------------------
jit/startup time      : 165.1093ms
moved types parse time: 34ms
candidates parse time : 7ms
C# parse time         : 421ms
candidates check time : -1ms
console write time    : -1ms

[api-updater (non-obsolete-error-filter)] 10/13/2021 11:56:21 PM : Starting F:/Unity/2020.3.13f1/Editor/Data/Tools/ScriptUpdater/APIUpdater.NonObsoleteApiUpdaterDetector.exe
[api-updater (non-obsolete-error-filter)] 
----------------------------------
jit/startup time      : 565.9857ms
moved types parse time: 36ms
candidates parse time : 0ms
C# parse time         : 445ms
candidates check time : 38ms
console write time    : 0ms

[api-updater (non-obsolete-error-filter)] 10/14/2021 12:00:22 AM : Starting F:/Unity/2020.3.13f1/Editor/Data/Tools/ScriptUpdater/APIUpdater.NonObsoleteApiUpdaterDetector.exe
[api-updater (non-obsolete-error-filter)] 
----------------------------------
jit/startup time      : 62.3556ms
moved types parse time: 34ms
candidates parse time : 0ms
C# parse time         : 126ms
candidates check time : 42ms
console write time    : 0ms

[api-updater (non-obsolete-error-filter)] 10/14/2021 12:06:48 AM : Starting F:/Unity/2020.3.13f1/Editor/Data/Tools/ScriptUpdater/APIUpdater.NonObsoleteApiUpdaterDetector.exe
[api-updater (non-obsolete-error-filter)] 
----------------------------------
jit/startup time      : 59.5499ms
moved types parse time: 38ms
candidates parse time : 1ms
C# parse time         : 132ms
candidates check time : 39ms
console write time    : 0ms

[api-updater (non-obsolete-error-filter)] 10/14/2021 1:00:18 AM : Starting F:/Unity/2020.3.13f1/Editor/Data/Tools/ScriptUpdater/APIUpdater.NonObsoleteApiUpdaterDetector.exe
[api-updater (non-obsolete-error-filter)] 
----------------------------------
jit/startup time      : 64.5551ms
moved types parse time: 34ms
candidates parse time : 0ms
C# parse time         : 138ms
candidates check time : 31ms
console write time    : 0ms

[api-updater (non-obsolete-error-filter)] 10/14/2021 1:18:28 AM : Starting F:/Unity/2020.3.13f1/Editor/Data/Tools/ScriptUpdater/APIUpdater.NonObsoleteApiUpdaterDetector.exe
[api-updater (non-obsolete-error-filter)] 
----------------------------------
jit/startup time      : 63.0541ms
moved types parse time: 34ms
candidates parse time : 0ms
C# parse time         : 109ms
candidates check time : 29ms
console write time    : 0ms

[api-updater (non-obsolete-error-filter)] 10/15/2021 1:11:53 AM : Starting F:/Unity/2020.3.13f1/Editor/Data/Tools/ScriptUpdater/APIUpdater.NonObsoleteApiUpdaterDetector.exe
[api-updater (non-obsolete-error-filter)] 
----------------------------------
jit/startup time      : 551.9748ms
moved types parse time: 38ms
candidates parse time : 0ms
C# parse time         : 451ms
candidates check time : 31ms
console write time    : 0ms

[api-updater (non-obsolete-error-filter)] 10/23/2021 9:34:49 PM : Starting F:/Unity/2020.3.13f1/Editor/Data/Tools/ScriptUpdater/APIUpdater.NonObsoleteApiUpdaterDetector.exe
[api-updater (non-obsolete-error-filter)] 
----------------------------------
jit/startup time      : 501.0859ms
moved types parse time: 38ms
candidates parse time : 0ms
C# parse time         : 378ms
candidates check time : 21ms
console write time    : 0ms

[api-updater (non-obsolete-error-filter)] 10/23/2021 9:35:03 PM : Starting F:/Unity/2020.3.13f1/Editor/Data/Tools/ScriptUpdater/APIUpdater.NonObsoleteApiUpdaterDetector.exe
[api-updater (non-obsolete-error-filter)] 
----------------------------------
jit/startup time      : 50.5445ms
moved types parse time: 32ms
candidates parse time : 0ms
C# parse time         : 114ms
candidates check time : 19ms
console write time    : 0ms

[api-updater (non-obsolete-error-filter)] 10/23/2021 10:24:45 PM : Starting F:/Unity/2020.3.13f1/Editor/Data/Tools/ScriptUpdater/APIUpdater.NonObsoleteApiUpdaterDetector.exe
[api-updater (non-obsolete-error-filter)] 
----------------------------------
jit/startup time      : 58.5501ms
moved types parse time: 33ms
candidates parse time : 0ms
C# parse time         : 121ms
candidates check time : 29ms
console write time    : 0ms

[api-updater (non-obsolete-error-filter)] 10/23/2021 11:02:54 PM : Starting F:/Unity/2020.3.13f1/Editor/Data/Tools/ScriptUpdater/APIUpdater.NonObsoleteApiUpdaterDetector.exe
[api-updater (non-obsolete-error-filter)] 
----------------------------------
jit/startup time      : 52.545ms
moved types parse time: 34ms
candidates parse time : 0ms
C# parse time         : 161ms
candidates check time : 33ms
console write time    : 0ms

[api-updater (non-obsolete-error-filter)] 10/24/2021 5:46:55 PM : Starting F:/Unity/2020.3.13f1/Editor/Data/Tools/ScriptUpdater/APIUpdater.NonObsoleteApiUpdaterDetector.exe
[api-updater (non-obsolete-error-filter)] 
----------------------------------
jit/startup time      : 504.1476ms
moved types parse time: 38ms
candidates parse time : 0ms
C# parse time         : 386ms
candidates check time : 29ms
console write time    : 0ms

[api-updater (non-obsolete-error-filter)] 10/24/2021 8:51:02 PM : Starting F:/Unity/2020.3.13f1/Editor/Data/Tools/ScriptUpdater/APIUpdater.NonObsoleteApiUpdaterDetector.exe
[api-updater (non-obsolete-error-filter)] 
----------------------------------
jit/startup time      : 75.5655ms
moved types parse time: 44ms
candidates parse time : 0ms
C# parse time         : 142ms
candidates check time : 40ms
console write time    : 0ms

[api-updater (non-obsolete-error-filter)] 10/27/2021 7:09:20 PM : Starting F:/Unity/2020.3.13f1/Editor/Data/Tools/ScriptUpdater/APIUpdater.NonObsoleteApiUpdaterDetector.exe
[api-updater (non-obsolete-error-filter)] 
----------------------------------
jit/startup time      : 525.4507ms
moved types parse time: 43ms
candidates parse time : 0ms
C# parse time         : 468ms
candidates check time : 38ms
console write time    : 1ms

[api-updater (non-obsolete-error-filter)] 10/27/2021 7:09:37 PM : Starting F:/Unity/2020.3.13f1/Editor/Data/Tools/ScriptUpdater/APIUpdater.NonObsoleteApiUpdaterDetector.exe
[api-updater (non-obsolete-error-filter)] 
----------------------------------
jit/startup time      : 74.0627ms
moved types parse time: 38ms
candidates parse time : 0ms
C# parse time         : 144ms
candidates check time : 41ms
console write time    : 0ms

[api-updater (non-obsolete-error-filter)] 10/27/2021 7:17:53 PM : Starting F:/Unity/2020.3.13f1/Editor/Data/Tools/ScriptUpdater/APIUpdater.NonObsoleteApiUpdaterDetector.exe
[api-updater (non-obsolete-error-filter)] 
----------------------------------
jit/startup time      : 70.0596ms
moved types parse time: 40ms
candidates parse time : 0ms
C# parse time         : 149ms
candidates check time : 48ms
console write time    : 0ms

[api-updater (non-obsolete-error-filter)] 10/28/2021 2:48:49 PM : Starting F:/Unity/2020.3.13f1/Editor/Data/Tools/ScriptUpdater/APIUpdater.NonObsoleteApiUpdaterDetector.exe
[api-updater (non-obsolete-error-filter)] 
----------------------------------
jit/startup time      : 626.6428ms
moved types parse time: 44ms
candidates parse time : 0ms
C# parse time         : 499ms
candidates check time : 35ms
console write time    : 0ms

